{
	"Prescription": [
	{
		"username": "Patient1", 
		"usertype": "Patient", 
		"name": "Patient1 Name", 
		"date": "22-1-2015", 
		"brand": "Prescription Name",
		"doctorName": "Doctor Name"
	},
	{
		"username": "Patient1", 
		"usertype": "Patient", 
		"name": "Patient1 Name", 
		"date": "1-1-1111", 
		"brand": "Prescription Name",
		"doctorName": "Doctor Name"
	}
	]
}

